{
  "project_info": {
    "project_number": "240233794989",
    "project_id": "flashnewsapp-d751a",
    "storage_bucket": "flashnewsapp-d751a.appspot.com"
  },
  "client": [
    {
      "client_info": {
        "mobilesdk_app_id": "1:240233794989:android:953bd4b5aef10ccb54e524",
        "android_client_info": {
          "package_name": "com.febrifahmi.flashnewsapp"
        }
      },
      "oauth_client": [
        {
          "client_id": "240233794989-k80lkit83od5vg4quq57rusllmf60ula.apps.googleusercontent.com",
          "client_type": 3
        }
      ],
      "api_key": [
        {
          "current_key": "AIzaSyA8cvHoSJvO6SWR60mHdAi1WQ_WBR1hSlw"
        }
      ],
      "services": {
        "appinvite_service": {
          "other_platform_oauth_client": [
            {
              "client_id": "240233794989-k80lkit83od5vg4quq57rusllmf60ula.apps.googleusercontent.com",
              "client_type": 3
            }
          ]
        }
      }
    }
  ],
  "configuration_version": "1"
}